  running /Users/visscher/bin/pam --scratch=/tmp/dirac_tmp --noarch --aw=-1 --env=QF_PROCS_PER_NODE=4 #number of MPI processes per node --env=QF_CORES_PER_PROCESS=1 #number of cores per MPI process --env=QF_MEM_PER_PROCESS=1576 #host memory limit per MPI process in MB --env=QF_NVMEM_PER_PROCESS=0 #non-volatile memory limit per MPI process in MB --env=QF_HOST_BUFFER_SIZE=1576 #non-volatile memory limit per MPI process in MB --env=QF_NUM_THREADS=8 #number of threads per MPI process (irrelevant, keep it 8) --env=OMP_DYNAMIC=false #no OpenMP dynamic threading --env=OMP_NESTED=true #OpenMP nested parallelism is mandatory --env=OMP_MAX_ACTIVE_LEVELS=3 #max number of OpenMP nesting levels (at least 3) --env=OMP_THREAD_LIMIT=256 #max total number of OpenMP threads per process --env=OMP_WAIT_POLICY=PASSIVE #idle thread behavior --env=OMP_PLACES=threads #default thread binding to CPU logical cores --env=OMP_PROC_BIND=close,spread,spread #nest1: Functional threads (DSVU) --env=MKL_NUM_THREADS=1 --env=MKL_DYNAMIC=false --env=DYLD_LIBRARY_PATH=/opt/intel/oneapi/mkl/latest/lib --mol=/Users/visscher/sources/rose/build_withams/test/dirac_atomfrags/H1-C1-N1_STO-3G_NONREL_nosym.xyz --inp=/Users/visscher/sources/rose/build_withams/test/dirac_atomfrags/H1-C1-N1_STO-3G_NONREL_nosym.inp --get=DFCOEF  MRCONEE --silent --noarch
  Native hdf5 checkpoint file was retrieved from scratch directory
  exit           : normal
  running /Users/visscher/bin/pam --scratch=/tmp/dirac_tmp --noarch --aw=-1 --env=QF_PROCS_PER_NODE=4 #number of MPI processes per node --env=QF_CORES_PER_PROCESS=1 #number of cores per MPI process --env=QF_MEM_PER_PROCESS=1576 #host memory limit per MPI process in MB --env=QF_NVMEM_PER_PROCESS=0 #non-volatile memory limit per MPI process in MB --env=QF_HOST_BUFFER_SIZE=1576 #non-volatile memory limit per MPI process in MB --env=QF_NUM_THREADS=8 #number of threads per MPI process (irrelevant, keep it 8) --env=OMP_DYNAMIC=false #no OpenMP dynamic threading --env=OMP_NESTED=true #OpenMP nested parallelism is mandatory --env=OMP_MAX_ACTIVE_LEVELS=3 #max number of OpenMP nesting levels (at least 3) --env=OMP_THREAD_LIMIT=256 #max total number of OpenMP threads per process --env=OMP_WAIT_POLICY=PASSIVE #idle thread behavior --env=OMP_PLACES=threads #default thread binding to CPU logical cores --env=OMP_PROC_BIND=close,spread,spread #nest1: Functional threads (DSVU) --env=MKL_NUM_THREADS=1 --env=MKL_DYNAMIC=false --env=DYLD_LIBRARY_PATH=/opt/intel/oneapi/mkl/latest/lib --mol=/Users/visscher/sources/rose/build_withams/test/dirac_atomfrags/N1_STO-3G_NONREL_nosym.xyz --inp=/Users/visscher/sources/rose/build_withams/test/dirac_atomfrags/N1_STO-3G_NONREL_nosym.inp --get=DFCOEF  --silent --noarch
  Native hdf5 checkpoint file was retrieved from scratch directory
  exit           : normal
  running /Users/visscher/bin/pam --scratch=/tmp/dirac_tmp --noarch --aw=-1 --env=QF_PROCS_PER_NODE=4 #number of MPI processes per node --env=QF_CORES_PER_PROCESS=1 #number of cores per MPI process --env=QF_MEM_PER_PROCESS=1576 #host memory limit per MPI process in MB --env=QF_NVMEM_PER_PROCESS=0 #non-volatile memory limit per MPI process in MB --env=QF_HOST_BUFFER_SIZE=1576 #non-volatile memory limit per MPI process in MB --env=QF_NUM_THREADS=8 #number of threads per MPI process (irrelevant, keep it 8) --env=OMP_DYNAMIC=false #no OpenMP dynamic threading --env=OMP_NESTED=true #OpenMP nested parallelism is mandatory --env=OMP_MAX_ACTIVE_LEVELS=3 #max number of OpenMP nesting levels (at least 3) --env=OMP_THREAD_LIMIT=256 #max total number of OpenMP threads per process --env=OMP_WAIT_POLICY=PASSIVE #idle thread behavior --env=OMP_PLACES=threads #default thread binding to CPU logical cores --env=OMP_PROC_BIND=close,spread,spread #nest1: Functional threads (DSVU) --env=MKL_NUM_THREADS=1 --env=MKL_DYNAMIC=false --env=DYLD_LIBRARY_PATH=/opt/intel/oneapi/mkl/latest/lib --mol=/Users/visscher/sources/rose/build_withams/test/dirac_atomfrags/C1_STO-3G_NONREL_nosym.xyz --inp=/Users/visscher/sources/rose/build_withams/test/dirac_atomfrags/C1_STO-3G_NONREL_nosym.inp --get=DFCOEF  --silent --noarch
  Native hdf5 checkpoint file was retrieved from scratch directory
  exit           : normal
  running /Users/visscher/bin/pam --scratch=/tmp/dirac_tmp --noarch --aw=-1 --env=QF_PROCS_PER_NODE=4 #number of MPI processes per node --env=QF_CORES_PER_PROCESS=1 #number of cores per MPI process --env=QF_MEM_PER_PROCESS=1576 #host memory limit per MPI process in MB --env=QF_NVMEM_PER_PROCESS=0 #non-volatile memory limit per MPI process in MB --env=QF_HOST_BUFFER_SIZE=1576 #non-volatile memory limit per MPI process in MB --env=QF_NUM_THREADS=8 #number of threads per MPI process (irrelevant, keep it 8) --env=OMP_DYNAMIC=false #no OpenMP dynamic threading --env=OMP_NESTED=true #OpenMP nested parallelism is mandatory --env=OMP_MAX_ACTIVE_LEVELS=3 #max number of OpenMP nesting levels (at least 3) --env=OMP_THREAD_LIMIT=256 #max total number of OpenMP threads per process --env=OMP_WAIT_POLICY=PASSIVE #idle thread behavior --env=OMP_PLACES=threads #default thread binding to CPU logical cores --env=OMP_PROC_BIND=close,spread,spread #nest1: Functional threads (DSVU) --env=MKL_NUM_THREADS=1 --env=MKL_DYNAMIC=false --env=DYLD_LIBRARY_PATH=/opt/intel/oneapi/mkl/latest/lib --mol=/Users/visscher/sources/rose/build_withams/test/dirac_atomfrags/H1_STO-3G_NONREL_nosym.xyz --inp=/Users/visscher/sources/rose/build_withams/test/dirac_atomfrags/H1_STO-3G_NONREL_nosym.inp --get=DFCOEF  --silent --noarch
  Native hdf5 checkpoint file was retrieved from scratch directory
  exit           : normal
 
 @@@@@@@@@@@@@@@@@@@@@@@@@@@@@@@@@@@@@@@@@@@@@@@@@@
 @                                                @
 @       Reduction of Orbital Space Extent        @
 @                     (ROSE)                     @
 @                                                @
 @ By Bruno Senjean, Souloke Sen, Michal Repisky, @
 @        Gerald Knizia and Lucas Visscher.       @
 @@@@@@@@@@@@@@@@@@@@@@@@@@@@@@@@@@@@@@@@@@@@@@@@@@
 
 Select algebra (rcq) based on the use of restricted and spatial orbitals:
   rcq = 1, 2 or 4  : real, complex or quaternion algebra, respectively
   restricted       :  T
   spatial_orbitals :  T
   rcq              :  1
 
 ####################################
 #      Molecular  Coordinates      #
 ####################################
 
Atom    Z           X           Y           Z
N    7.00  0.00000000  0.00000000  4.15860692
C    6.00  0.00000000  0.00000000  1.96945368
H    1.00  0.00000000  0.00000000 -0.06281450
 
 ####################################
 #         Basis set size           #
 #               and                #
 #      Canonical MO Energies       #
 ####################################
 
 No. basis functions    B1:     33
 No. molecular orbitals B1:     31
 No. occupied  orbitals B1:      5
 No. molecular orbitals B2:      9
 
 
 ####################################
 #   Intrinsic Fragments Orbitals   #
 ####################################
 
  Version: Standard 2013
 
  --- Check Symmetrical Orthogonalization --- 
**SUCCESS** Symmetrical orthogonalization was successful, norm:  0.3073E-14
 
 
  --- Check Symmetrical Orthogonalization --- 
**SUCCESS** Symmetrical orthogonalization was successful, norm:  0.5823E-14
 
 ####################################
 #  Partial charges of fragments    #
 ####################################
 
       Fragment      Charge
   N              -0.130277
   C              -0.067905
   H               0.198182
 
 
 
 ####################################
 # Intrinsic Localized occupied MOs #
 ####################################
 
 
 ----- Percentage of localization before the localization procedure ----- 
 
 MO Localized on fragments (with %) (thrs = 0.01, first ten are shown)
  1     -1.2365 [    1    2    3]                                   
                [ 55.8 42.3  1.8]                                   
  2     -0.7796 [    1    2    3]                                   
                [  5.1 59.1 35.8]                                   
  3     -0.5483 [    1    2    3]                                   
                [ 92.3  5.2  2.5]                                   
  4     -0.4720 [    1    2]                                        
                [ 51.6 48.4]                                        
  5     -0.4720 [    1    2]                                        
                [ 51.6 48.4]                                        
 
 ----- Localization procedure: 2x2 Rotations -----
 (Exponent = 4)
 
 Iter        Function    Gradient
    1        1.246305    7.48E-02
    2        1.511544    7.64E-03
    3        1.518845    4.95E-05
    4        1.518845    1.85E-08
    5        1.518845    5.00E-12
    6        1.518845    1.09E-15
    7        1.518845    1.98E-16
 
 ******************************************
 Final converged values (it, func, fGrad):
    7            1.5188454205714259  1.9830E-16
 ******************************************
 
 
 ----- Percentage of localization after the localization procedure ----- 
 
 MO Localized on fragments (with %) (thrs = 0.01, first ten are shown)
  1 [    1    2]                                        
    [ 53.8 46.1]                                        
  2 [    1]                                             
    [ 99.5]                                             
  3 [    1    2]                                        
    [ 51.6 48.4]                                        
  4 [    1    2]                                        
    [ 51.6 48.4]                                        
  5 [    2    3]                                        
    [ 60.4 39.6]                                        
 
 ----- Percentage of localization after recanonization ----- 
 
 MO Localized on fragments (with %) (thrs = 0.01, first ten are shown)
  1     -1.2282 [    1    2]                                        
                [ 57.2 42.5]                                        
  2     -0.5562 [    1    2]                                        
                [ 96.1  3.7]                                        
  3     -0.4720 [    1    2]                                        
                [ 51.6 48.4]                                        
  4     -0.4720 [    1    2]                                        
                [ 51.6 48.4]                                        
  5     -0.7800 [    2    3]                                        
                [ 60.4 39.6]                                        
 
 
 ############################################
 # Intrinsic Localized valence virtual MOs  #
 ############################################
 
 
 ----- Percentage of localization before the localization procedure ----- 
 
 MO Localized on fragments (with %) (thrs = 0.01, first ten are shown)
  1      0.2349 [    1    2    3]                                   
                [  1.1 40.5 58.4]                                   
  2      0.2349 [    1    2]                                        
                [ 48.4 51.6]                                        
  3      0.2552 [    1    2    3]                                   
                [ 45.7 53.0  1.3]                                   
  4      0.5292 [    1    2]                                        
                [ 48.3 51.6]                                        
 
 ----- Localization procedure: 2x2 Rotations -----
 (Exponent = 4)
 
 Iter        Function    Gradient
    1        0.516387    1.82E-02
    2        0.534288    6.12E-04
    3        0.534306    1.37E-07
    4        0.534306    2.37E-10
    5        0.534306    7.78E-13
    6        0.534306    2.55E-15
    7        0.534306    2.11E-17
 
 ******************************************
 Final converged values (it, func, fGrad):
    7            0.5343058277892136  2.1128E-17
 ******************************************
 
 
 ----- Percentage of localization after the localization procedure ----- 
 
 MO Localized on fragments (with %) (thrs = 0.01, first ten are shown)
  1 [    1    2]                                        
    [ 48.4 51.6]                                        
  2 [    1    2]                                        
    [ 46.1 53.9]                                        
  3 [    1    2]                                        
    [ 48.4 51.6]                                        
  4 [    2    3]                                        
    [ 39.5 59.9]                                        
 
 ####################################
 #      Additional virtuals         #
 ####################################
 
 No. molecular virtuals B3:     22
 No. selected  virtuals B3:      9
 No. reference virtuals B4:     18
 
 
 ####################################
 #   Intrinsic Fragments Orbitals   #
 ####################################
 
  Version: Standard 2013
 
  --- Check Symmetrical Orthogonalization --- 
**SUCCESS** Symmetrical orthogonalization was successful, norm:  0.6942E-14
 
 
  --- Check Symmetrical Orthogonalization --- 
**SUCCESS** Symmetrical orthogonalization was successful, norm:  0.3763E-13
 
 
 ##############################################
 # Intrinsic Localized additional virtual MOs #
 ##############################################
 
 
 ----- Localization procedure: 2x2 Rotations -----
 (Exponent = 4)
 
 Iter        Function    Gradient
    1        5.106447    7.16E-02
    2        7.039860    1.87E-02
    3        7.216498    3.08E-04
    4        7.216523    5.98E-06
    5        7.216523    5.26E-08
    6        7.216523    6.43E-10
    7        7.216523    9.19E-12
    8        7.216523    1.41E-13
    9        7.216523    2.23E-15
   10        7.216523    8.49E-17
 
 ******************************************
 Final converged values (it, func, fGrad):
   10            7.2165231860169685  8.4944E-17
 ******************************************
 
 
 ----- Percentage of localization after the localization procedure ----- 
 
 MO Localized on fragments (with %) (thrs = 0.01, first ten are shown)
  1 [    1]                                             
    [ 99.9]                                             
  2 [    1]                                             
    [ 99.5]                                             
  3 [    1]                                             
    [ 99.5]                                             
  4 [    1    2    3]                                   
    [ 79.2  6.9 13.9]                                   
  5 [    2]                                             
    [ 99.5]                                             
  6 [    2]                                             
    [ 99.5]                                             
  7 [    1    2    3]                                   
    [ 34.6 56.6  8.8]                                   
  8 [    2]                                             
    [ 98.9]                                             
  9 [    2    3]                                        
    [  4.5 95.4]                                        
 
 ----- Recanonicalized virtual energies of fragments -----
 
    Fragment          MO              Energy
           1           1         0.250940672
           1           2         0.250940672
           1           3         0.895123846
           1           4         1.261138356
           1           5         1.261138356
           1           6         1.309221675
           1           7         1.997345135
           2           1         0.950085303
           2           2         0.950085303
           2           3         0.962640222
           2           4         1.228150609
           3           1         0.321168510
           3           2         0.946805363
 
 ####################################
 #         Starting TESTS           #
 ####################################
 
 The matrix is normalized.
 The matrix is normalized.
 The matrix is normalized.
 Deviation of IBO_RDM from HF_RDM  :  1.310645761337262E-014
 Deviation from orthogonality      :  7.309260510593944E-015
 Deviation from orthogonality      :  5.322393054478858E-015
 Deviation in number of electrons  :  0.000000000000000E+000
 Deviation in number of electrons  :  1.065814103640150E-014
 HF energy (moB1)   :   -91.8435699911262     
 HF energy (IAO)    :   -91.8435699911262     
 HF energy (IBO/MO) :   -91.8435699911263     
 Deviation from the HF energy in the original basis and in the IAO basis:
  0.0000000E+00
 Deviation from the HF energy in the original basis and in the IBO basis:
 -5.6843419E-14
 
 @@@@@@@@@@@@@@@@@@@@@@@@@@@@@@@@@@@@@@@@@@@@@@@@@@
 @                                                @
 @       Reduction of Orbital Space Extent        @
 @                                                @
 @                      END                       @
 @                                                @
 @@@@@@@@@@@@@@@@@@@@@@@@@@@@@@@@@@@@@@@@@@@@@@@@@@
  running /Users/visscher/bin/pam --scratch=/tmp/dirac_tmp --noarch --aw=-1 --env=QF_PROCS_PER_NODE=4 #number of MPI processes per node --env=QF_CORES_PER_PROCESS=1 #number of cores per MPI process --env=QF_MEM_PER_PROCESS=1576 #host memory limit per MPI process in MB --env=QF_NVMEM_PER_PROCESS=0 #non-volatile memory limit per MPI process in MB --env=QF_HOST_BUFFER_SIZE=1576 #non-volatile memory limit per MPI process in MB --env=QF_NUM_THREADS=8 #number of threads per MPI process (irrelevant, keep it 8) --env=OMP_DYNAMIC=false #no OpenMP dynamic threading --env=OMP_NESTED=true #OpenMP nested parallelism is mandatory --env=OMP_MAX_ACTIVE_LEVELS=3 #max number of OpenMP nesting levels (at least 3) --env=OMP_THREAD_LIMIT=256 #max total number of OpenMP threads per process --env=OMP_WAIT_POLICY=PASSIVE #idle thread behavior --env=OMP_PLACES=threads #default thread binding to CPU logical cores --env=OMP_PROC_BIND=close,spread,spread #nest1: Functional threads (DSVU) --env=MKL_NUM_THREADS=1 --env=MKL_DYNAMIC=false --env=DYLD_LIBRARY_PATH=/opt/intel/oneapi/mkl/latest/lib --mol=/Users/visscher/sources/rose/build_withams/test/dirac_atomfrags/H1-C1-N1_STO-3G_NONREL_nosym.xyz --inp=/Users/visscher/sources/rose/build_withams/test/dirac_atomfrags/H1-C1-N1_STO-3G_NONREL_nosym.inp --put=DFCOEF --silent --noarch
  Native hdf5 checkpoint file was retrieved from scratch directory
  exit           : normal
Starting Dirac calculation

Hartree-Fock energy of -91.84356998911362 Hartree in 12 iterations
Starting Dirac calculation

Starting Dirac calculation

Starting Dirac calculation

Starting Dirac calculation

 (IBO) Hartree-Fock energy of -91.84356998911663 Hartree in 1 iterations

 Calculation finished: modified MO coefficient files available in /Users/visscher/sources/rose/build_withams/test/dirac_atomfrags
