6

C     0.00000    0.00000    0.66676
C     0.00000    0.00000   -0.66676
F     0.00000    1.10881    1.39667
F     0.00000   -1.10881    1.39667
F     0.00000   -1.10881   -1.39667
F     0.00000    1.10881   -1.39667
