21

Fe       1.66780866       0.12282848      -0.27460150
C       2.24106869       2.10024551      -0.33511480
C       1.78191728       1.75217481       0.97966357
C       1.16672810       1.86346489      -1.25728635
C       0.42377202       1.30026137       0.87001390
C       0.04359901       1.36901828      -0.51247557
H       2.36507558       1.80777918       1.89582556
H       1.20126378       2.02039952      -2.33279589
H      -0.20304943       0.95502659       1.68878543
H      -0.92220706       1.08645766      -0.92472956
H       3.23295333       2.46614000      -0.58966882
C       1.49870213      -1.80608183       0.42766268
C       2.24424364      -1.24911576      -1.70047730
C       3.31616817      -1.00607736      -0.77719710
C       1.12099915      -1.74357622      -0.95584975
C       2.85541376      -1.35028551       0.53811026
H       4.30039797      -0.61794626      -1.02844385
H       2.27428727      -1.07886582      -2.77411019
H       3.42876748      -1.26708471       1.45836098
H       0.15065240      -2.01282736      -1.36630431
H       0.86407561      -2.12909803       1.24950292
