31
Te-PEG-4 (Helmich-Paris 2019 JCTC)
Te 0.0000000 -9.1301636 -1.1676537
Te 0.0000000 -4.5704050 1.2371414
Te 0.0000000 0.0000000 -1.1556066
Te 0.0000000 4.5704050 1.2371414
Te 0.0000000 9.1301636 -1.1676537
C 0.0000000 -7.5351050 0.3762086
C 0.0000000 -6.1744125 -0.2854254
C 0.0000000 -2.9672538 -0.2882902
C 0.0000000 -1.6040447 0.3685927
C 0.0000000 1.6040447 0.3685927
C 0.0000000 2.9672538 -0.2882902
C 0.0000000 6.1744125 -0.2854254
C 0.0000000 7.5351050 0.3762086
H 0.0000000 -10.3495699 -0.0080928
H -0.9035509 -7.7012362 0.9930863
H 0.9035509 -7.7012362 0.9930863
H 0.9029361 -6.0097771 -0.9060239
H -0.9029361 -6.0097771 -0.9060239
H 0.9028461 -3.1328211 -0.9084954
H -0.9028461 -3.1328211 -0.9084954
H -0.9027928 -1.4386066 0.9889341
H 0.9027928 -1.4386066 0.9889341
H -0.9027928 1.4386066 0.9889341
H 0.9027928 1.4386066 0.9889341
H 0.9028461 3.1328211 -0.9084954
H -0.9028461 3.1328211 -0.9084954
H 0.9029361 6.0097771 -0.9060239
H -0.9029361 6.0097771 -0.9060239
H -0.9035509 7.7012362 0.9930863
H 0.9035509 7.7012362 0.9930863
H 0.0000000 10.3495699 -0.0080928
