12

C      -0.70194075      -0.01702921      -0.11227617
C       0.61887390      -0.14376790      -0.00844867
H       1.19488001       0.58240892       0.55575112
H      -1.21095646       0.81274512       0.36709839
H      -1.27811510      -0.74426290      -0.67497324
H       1.12744115      -0.97476779      -0.48630513
C      -0.54039007      -3.26737749       1.53044260
C      -0.24332573      -3.73421883       0.32003996
H       0.66096569      -4.31339673       0.16438205
H       0.11976095      -3.46324846       2.36904483
H      -1.44298593      -2.68509416       1.68496165
H      -0.90189356      -3.53509004      -0.51911354
