PLAMS working folder: /Users/visscher/sources/rose/build_withams/test/ams_atomfrags/plams_workdir.007
Starting ADF calculation for Molecule in Basis B1...
[16.05|07:59:42] JOB Molecule_B1_MO1 STARTED
[16.05|07:59:42] JOB Molecule_B1_MO1 RUNNING
[16.05|07:59:51] JOB Molecule_B1_MO1 FINISHED
[16.05|07:59:51] JOB Molecule_B1_MO1 SUCCESSFUL
Molecule Basis B1 Successful
Starting ADF calculation for frag0...
[16.05|07:59:52] JOB frag0 STARTED
[16.05|07:59:52] JOB frag0 RUNNING
[16.05|07:59:55] JOB frag0 FINISHED
[16.05|07:59:55] Job frag0 reported warnings. Please check the output
[16.05|07:59:55] JOB frag0 SUCCESSFUL
Moved Original to destination
Starting ADF calculation for frag1...
[16.05|07:59:55] JOB frag1 STARTED
[16.05|07:59:55] JOB frag1 RUNNING
[16.05|07:59:58] JOB frag1 FINISHED
[16.05|07:59:58] Job frag1 reported warnings. Please check the output
[16.05|07:59:58] JOB frag1 SUCCESSFUL
Moved Original to destination
Starting ADF calculation for frag2...
[16.05|07:59:58] JOB frag2 STARTED
[16.05|07:59:58] JOB frag2 RUNNING
[16.05|08:00:02] JOB frag2 FINISHED
[16.05|08:00:02] Job frag2 reported warnings. Please check the output
[16.05|08:00:02] JOB frag2 SUCCESSFUL
Moved Original to destination
Starting ADF calculation for frag3...
[16.05|08:00:02] JOB frag3 STARTED
[16.05|08:00:02] JOB frag3 RUNNING
[16.05|08:00:05] JOB frag3 FINISHED
[16.05|08:00:05] Job frag3 reported warnings. Please check the output
[16.05|08:00:05] JOB frag3 SUCCESSFUL
Moved Original to destination
Starting ADF calculation for frag4...
[16.05|08:00:05] JOB frag4 STARTED
[16.05|08:00:05] JOB frag4 RUNNING
[16.05|08:00:09] JOB frag4 FINISHED
[16.05|08:00:09] Job frag4 reported warnings. Please check the output
[16.05|08:00:09] JOB frag4 SUCCESSFUL
Moved Original to destination
Starting ADF calculation for frag5...
[16.05|08:00:09] JOB frag5 STARTED
[16.05|08:00:09] JOB frag5 RUNNING
[16.05|08:00:12] JOB frag5 FINISHED
[16.05|08:00:12] Job frag5 reported warnings. Please check the output
[16.05|08:00:12] JOB frag5 SUCCESSFUL
Moved Original to destination
Starting ADF calculation for frag6...
[16.05|08:00:12] JOB frag6 STARTED
[16.05|08:00:12] JOB frag6 RUNNING
[16.05|08:00:15] JOB frag6 FINISHED
[16.05|08:00:15] Job frag6 reported warnings. Please check the output
[16.05|08:00:15] JOB frag6 SUCCESSFUL
Moved Original to destination
Starting ADF calculation for frag7...
[16.05|08:00:15] JOB frag7 STARTED
[16.05|08:00:15] JOB frag7 RUNNING
[16.05|08:00:19] JOB frag7 FINISHED
[16.05|08:00:19] Job frag7 reported warnings. Please check the output
[16.05|08:00:19] JOB frag7 SUCCESSFUL
Moved Original to destination
Starting ADF calculation for frag8...
[16.05|08:00:19] JOB frag8 STARTED
[16.05|08:00:19] JOB frag8 RUNNING
[16.05|08:00:22] JOB frag8 FINISHED
[16.05|08:00:22] Job frag8 reported warnings. Please check the output
[16.05|08:00:22] JOB frag8 SUCCESSFUL
Moved Original to destination
Starting Calculation of overlap matrix
[16.05|08:00:22] JOB Molecule_B2_S12 STARTED
[16.05|08:00:22] JOB Molecule_B2_S12 RUNNING
[16.05|08:00:25] JOB Molecule_B2_S12 FINISHED
[16.05|08:00:25] JOB Molecule_B2_S12 SUCCESSFUL
ADF Calculation completed successfully!!!
[16.05|08:00:25] PLAMS run finished. Goodbye
 
 @@@@@@@@@@@@@@@@@@@@@@@@@@@@@@@@@@@@@@@@@@@@@@@@@@
 @                                                @
 @       Reduction of Orbital Space Extent        @
 @                     (ROSE)                     @
 @                                                @
 @ By Bruno Senjean, Souloke Sen, Michal Repisky, @
 @        Gerald Knizia and Lucas Visscher.       @
 @@@@@@@@@@@@@@@@@@@@@@@@@@@@@@@@@@@@@@@@@@@@@@@@@@
 
 Select algebra (rcq) based on the use of restricted and spatial orbitals:
   rcq = 1, 2 or 4  : real, complex or quaternion algebra, respectively
   restricted       :  T
   spatial_orbitals :  T
   rcq              :  1
 
 ####################################
 #      Molecular  Coordinates      #
 ####################################
 
Atom    Z           X           Y           Z
O    8.00  2.18527929 -2.51524437  0.34139792
O    8.00  3.47110564  1.59005336  0.34750174
C    6.00 -2.92527714 -0.65405311 -0.31605669
C    6.00 -0.88949409  0.83170626 -0.13505873
C    6.00  1.66719198 -0.27332999  0.20197393
H    1.00 -4.81094036  0.13349025 -0.57209569
H    1.00 -2.71895685 -2.70295087 -0.20777539
H    1.00 -1.01527426  2.88801174 -0.22500969
H    1.00  5.07478392  0.68349504  0.56725799
 
 ####################################
 #         Basis set size           #
 #               and                #
 #      Canonical MO Energies       #
 ####################################
 
 No. basis functions    B1:    100
 No. molecular orbitals B1:     90
 No. core      orbitals B1:      5
 No. occupied  orbitals B1:     14
 No. molecular orbitals B2:     24
 No. core frag orbitals   :      1     1     1     1     1     0     0     0     0
 No. MO   frag orbitals   :      4     4     4     4     4     1     1     1     1
 
 
 ####################################
 #   Intrinsic Fragments Orbitals   #
 ####################################
 
  Version: Standard 2013
 
  --- Check Symmetrical Orthogonalization --- 
**SUCCESS** Symmetrical orthogonalization was successful, norm:  0.7109E-14
 
 
  --- Check Symmetrical Orthogonalization --- 
**SUCCESS** Symmetrical orthogonalization was successful, norm:  0.1753E-13
 
 ####################################
 #  Partial charges of fragments    #
 ####################################
 
       Fragment      Charge
   frag0          -0.460145
   frag1          -0.539576
   frag2          -0.338595
   frag3          -0.255226
   frag4           0.523001
   frag5           0.212646
   frag6           0.219011
   frag7           0.213725
   frag8           0.425160
 
 
 
 ####################################
 # Intrinsic Localized occupied MOs #
 ####################################
 
 
 ----- Percentage of localization before the localization procedure ----- 
 
 MO Localized on fragments (with %) (thrs = 0.01, first ten are shown)
  1     -1.0340 [    1    2    4    5    9]                         
                [ 19.6 46.2  2.2 24.4  7.0]                         
  2     -0.9505 [    1    2    5    9]                              
                [ 45.3 24.4 26.6  3.0]                              
  3     -0.7476 [    1    2    3    4    5    6    7    8]          
                [  2.0  2.4 30.8 38.2 14.5  3.5  3.5  4.8]          
  4     -0.6285 [    1    2    3    4    5    6    7    9]          
                [  2.1 24.8 19.0 19.7 20.0  4.8  3.8  5.3]          
  5     -0.5263 [    1    2    3    4    5    6    7    8    9]     
                [  1.4 29.0 22.8 12.6 10.6  6.4  5.9  5.0  6.3]     
  6     -0.4828 [    1    2    3    4    5    6    7    8]          
                [ 12.3  4.9 19.1 34.0 11.8  2.1  3.8 11.0]          
  7     -0.4451 [    1    2    3    4    5    7]                    
                [ 43.1 38.0  4.8  3.1  7.8  2.5]                    
  8     -0.4136 [    1    2    3    4    5]                         
                [ 22.9 29.4  1.2  6.3 40.2]                         
  9     -0.4089 [    1    2    3    4    5    6    8]               
                [ 11.9  6.4 35.6 21.9  6.4 13.1  3.5]               
 10     -0.3828 [    1    2    3    4    5    6    7    8    9]     
                [ 16.6 36.5 18.8  9.2  1.7  1.2  9.9  3.7  2.4]     
 11     -0.3528 [    1    2    3    4    5    6    7    8    9]     
                [ 19.0 12.5 19.8 13.6  7.0  8.1  9.1  9.5  1.5]     
 12     -0.3000 [    1    2    3    4    5]                         
                [ 24.4 59.0  7.2  7.7  1.7]                         
 13     -0.2775 [    1    2    3    4]                              
                [ 24.4  1.1 37.2 37.0]                              
 14     -0.2526 [    1    2    4    8]                              
                [ 78.0 12.3  6.7  1.0]                              
 
 ----- Localization procedure: 2x2 Rotations -----
 (Exponent = 2)
 
 Iter        Function    Gradient
    1        4.078012    3.18E-02
    2        7.878823    2.03E-02
    3        8.700004    8.49E-03
    4        8.795402    5.37E-04
    5        8.795680    6.99E-06
    6        8.795680    1.54E-07
    7        8.795680    7.74E-09
    8        8.795680    6.75E-10
    9        8.795680    7.41E-11
   10        8.795680    8.44E-12
   11        8.795680    9.64E-13
   12        8.795680    1.10E-13
   13        8.795680    1.26E-14
   14        8.795680    1.44E-15
   15        8.795680    1.70E-16
 
 ******************************************
 Final converged values (it, func, fGrad):
   15            8.7956796789106004  1.7030E-16
 ******************************************
 
 
 ----- Percentage of localization after localization ----- 
 
 MO Localized on fragments (with %) (thrs = 0.01, first ten are shown)
  1     -0.8644 [    1    5]                                        
                [ 61.1 38.7]                                        
  2     -0.7468 [    2    5]                                        
                [ 65.1 34.6]                                        
  3     -0.7029 [    2    9]                                        
                [ 71.8 27.6]                                        
  4     -0.6011 [    3    4]                                        
                [ 49.6 50.0]                                        
  5     -0.5748 [    4    5]                                        
                [ 49.0 49.8]                                        
  6     -0.5218 [    1]                                             
                [ 99.2]                                             
  7     -0.4922 [    2]                                             
                [ 98.8]                                             
  8     -0.4776 [    4    8]                                        
                [ 60.3 38.5]                                        
  9     -0.4765 [    3    6]                                        
                [ 60.4 38.9]                                        
 10     -0.4704 [    3    7]                                        
                [ 60.8 38.4]                                        
 11     -0.3520 [    1    5]                                        
                [ 69.2 29.7]                                        
 12     -0.3438 [    1    2    5]                                   
                [  1.9 89.2  8.3]                                   
 13     -0.2953 [    3    4    5]                                   
                [ 44.2 50.9  4.2]                                   
 14     -0.2834 [    1    2    4    5]                              
                [ 90.3  1.4  1.3  6.3]                              
 
 ----- Percentage of localization after recanonization ----- 
 
 MO Localized on fragments (with %) (thrs = 0.01, first ten are shown)
  1     -0.9626 [    1    5]                                        
                [ 68.1 31.7]                                        
  2     -0.4237 [    1    5]                                        
                [ 92.3  7.3]                                        
  3     -0.3520 [    1    5]                                        
                [ 69.2 29.7]                                        
  4     -0.2833 [    1    2    4    5]                              
                [ 90.3  1.4  1.3  6.3]                              
  5     -0.9940 [    2    5    9]                                   
                [ 73.6 16.0 10.2]                                   
  6     -0.5483 [    2    5    9]                                   
                [ 67.9 16.7 15.0]                                   
  7     -0.3996 [    2    5    9]                                   
                [ 94.1  2.9  2.5]                                   
  8     -0.3438 [    1    2    5]                                   
                [  1.9 89.2  8.3]                                   
  9     -0.5451 [    3    6    7]                                   
                [ 59.9 20.9 19.0]                                   
 10     -0.4019 [    3    6    7]                                   
                [ 61.2 18.1 19.5]                                   
 11     -0.6355 [    3    4    8]                                   
                [ 41.2 50.6  7.8]                                   
 12     -0.4431 [    3    4    8]                                   
                [  8.7 59.8 30.7]                                   
 13     -0.2953 [    3    4    5]                                   
                [ 44.2 50.9  4.2]                                   
 14     -0.5748 [    4    5]                                        
                [ 49.0 49.8]                                        
 
 
 ############################################
 # Intrinsic Localized valence virtual MOs  #
 ############################################
 
 
 ----- Percentage of localization before the localization procedure ----- 
 
 MO Localized on fragments (with %) (thrs = 0.01, first ten are shown)
  1     -0.1073 [    2    3    4    5    6    7    8    9]          
                [  2.5 33.7  9.3  2.5  6.8 37.4  1.9  5.3]          
  2      0.0059 [    1    2    3    4    5    6    7    9]          
                [  7.2 19.5  8.4  6.6 36.3  4.3  5.9 11.5]          
  3      0.0167 [    1    2    3    4    5    6    7    8    9]     
                [  2.8  7.5 12.7 15.3 14.3  5.0 14.1 16.3 11.9]     
  4      0.0304 [    1    2    3    4    5    6    8]               
                [  1.7  6.5 40.2 32.9 10.7  3.9  3.5]               
  5      0.0650 [    1    2    3    4    5    8    9]               
                [  7.6 13.5 28.9 17.7 19.5  3.2  9.4]               
  6      0.1137 [    1    2    5]                                   
                [ 37.4  1.6 59.5]                                   
  7      0.1830 [    2    3    4    5    6    8    9]               
                [  5.6 28.8 34.7  5.9  4.1  9.8 10.6]               
  8      0.2143 [    1    2    3    4    5    6    8]               
                [  6.7  3.1 15.4 17.5 24.1 23.5  9.0]               
  9      0.2248 [    1    2    3    4    5    6    7    8    9]     
                [  4.9  3.2  4.4 34.0 31.8  3.8  1.4  9.3  7.3]     
 10      0.2507 [    1    2    3    4    5    6    8    9]          
                [  7.6  9.9 10.6 18.6 21.7  9.1  7.0 15.0]          
 
 ----- Localization procedure: 2x2 Rotations -----
 (Exponent = 2)
 
 Iter        Function    Gradient
    1        2.369805    4.37E-02
    2        4.900680    1.45E-02
    3        4.978971    2.05E-03
    4        4.980248    4.77E-05
    5        4.980248    1.22E-06
    6        4.980248    5.06E-08
    7        4.980248    2.21E-09
    8        4.980248    1.04E-10
    9        4.980248    5.48E-12
   10        4.980248    2.94E-13
   11        4.980248    1.55E-14
   12        4.980248    8.00E-16
 
 ******************************************
 Final converged values (it, func, fGrad):
   12            4.9802484895502399  8.0030E-16
 ******************************************
 
 
 ----- Percentage of localization after localization ----- 
 
 MO Localized on fragments (with %) (thrs = 0.01, first ten are shown)
  1     -0.0336 [    3    4]                                        
                [ 52.9 46.0]                                        
  2     -0.0126 [    1    2    3    4    5]                         
                [ 27.7 10.1  1.6  3.1 57.6]                         
  3      0.1317 [    2    9]                                        
                [ 27.5 71.2]                                        
  4      0.2538 [    1    2    5]                                   
                [  6.2 33.1 60.3]                                   
  5      0.2799 [    3    6]                                        
                [ 39.0 60.4]                                        
  6      0.2841 [    3    7]                                        
                [ 38.4 60.6]                                        
  7      0.2856 [    4    8]                                        
                [ 38.6 60.3]                                        
  8      0.3423 [    1    4    5]                                   
                [  3.1 48.3 47.3]                                   
  9      0.4488 [    1    2    5]                                   
                [ 38.3  1.1 60.2]                                   
 10      0.4978 [    3    4]                                        
                [ 50.1 49.6]                                        
 
 ####################################
 #      Additional virtuals         #
 ####################################
 
 No. molecular virtuals B3:     66
 No. selected  virtuals B3:     47
 No. reference virtuals B4:     61
 
 
 ####################################
 #   Intrinsic Fragments Orbitals   #
 ####################################
 
  Version: Standard 2013
 
  --- Check Symmetrical Orthogonalization --- 
**SUCCESS** Symmetrical orthogonalization was successful, norm:  0.5067E-13
 
 
  --- Check Symmetrical Orthogonalization --- 
**SUCCESS** Symmetrical orthogonalization was successful, norm:  0.2089E-12
 
 
 ##############################################
 # Intrinsic Localized additional virtual MOs #
 ##############################################
 
 
 ----- Percentage of localization before the localization procedure ----- 
 
 MO Localized on fragments (with %) (thrs = 0.01, first ten are shown)
  1      0.3327 [    2    3    4    5    6    7    8    9]          
                [  3.6  8.2  6.7  6.2 25.3 13.9 29.4  6.4]          
  2      0.3652 [    1    2    3    4    5    6    7    8    9]     
                [  2.7  5.8 14.4  2.5  7.2 14.8 12.5  3.5 36.6]     
  3      0.3794 [    1    2    3    4    5    6    7    8    9]     
                [  3.6  2.2 17.3 13.7  5.0 16.2 18.7 13.5  9.7]     
  4      0.4065 [    1    2    3    4    5    6    7    8    9]     
                [ 11.5  9.2  9.6 10.1 20.5  2.8 17.5  3.8 15.1]     
  5      0.4158 [    2    3    4    5    6    7    8    9]          
                [ 11.5  3.9 14.8 10.0 12.1  4.1 20.2 22.2]          
  6      0.4217 [    1    2    3    4    5    7    8    9]          
                [  3.2  4.7 21.1 23.5 31.6  4.7  3.7  6.6]          
  7      0.4606 [    1    2    3    4    5    6    7    8    9]     
                [  2.4  3.4 14.3  8.9  7.8 27.5 10.5 18.6  6.7]     
  8      0.4965 [    1    2    3    4    5    6    7    8    9]     
                [ 15.5  6.4 11.2  2.3 20.4  9.9  6.7  3.9 23.7]     
  9      0.5430 [    1    2    3    4    5    6    7    9]          
                [  3.4 15.4 13.3  4.1  1.7  4.3 22.4 35.4]          
 10      0.5462 [    2    3    4    5    6    7    8    9]          
                [  3.2 30.3 12.1  3.9 21.5  2.2 23.8  2.8]          
 11      0.5827 [    1    2    3    4    5    6    7    8    9]     
                [  6.3  2.6  6.7 10.5 11.6 16.1 18.5 25.8  2.0]     
 12      0.6165 [    1    2    3    4    5    6    7    8    9]     
                [  2.8  3.6  4.5  6.8 23.9  1.7 21.6 22.5 12.7]     
 13      0.6777 [    1    2    3    4    5    6    7    8    9]     
                [ 18.8  9.5  7.2  9.1  7.6 14.0 11.5 14.1  8.3]     
 14      0.7116 [    1    2    3    4    5    6    7    8    9]     
                [ 17.2 10.4 10.9  5.9 10.8 11.0 14.2  5.6 14.0]     
 15      0.7208 [    1    2    3    4    5    6    7    8    9]     
                [  6.4  8.2 17.1 10.2  6.3 22.8 17.3  9.3  2.4]     
 16      0.7616 [    1    2    3    4    5    6    7    8    9]     
                [  5.2  6.5 16.8 28.1 12.9 15.5 10.5  1.9  2.7]     
 17      0.8078 [    1    2    3    4    5    6    7    8    9]     
                [ 10.9 11.5 13.1 12.4  8.0  5.0  2.9 22.8 13.5]     
 18      0.8620 [    1    2    3    4    5    6    7    8    9]     
                [ 18.9 11.3  2.2 21.8  6.9 15.0 12.1  9.3  2.6]     
 19      0.8664 [    1    2    3    4    5    6    7    8    9]     
                [ 15.2 29.3 14.3  4.7  3.6  3.4  5.3  1.1 23.0]     
 20      0.8953 [    1    2    3    4    5    6    9]               
                [ 23.3 27.9  4.9 16.5 21.6  2.8  2.6]               
 21      0.9666 [    1    2    3    4    5    8]                    
                [ 44.0 32.1  1.1  1.3 16.0  4.9]                    
 22      1.0360 [    1    2    3    4    5    6    7    8    9]     
                [  7.5 30.0 18.7  7.5  4.9  4.7  9.3 16.3  1.0]     
 23      1.0466 [    1    2    3    4    5    6    7    8    9]     
                [ 51.5 13.0 12.3 14.3  1.7  1.4  1.6  2.4  1.7]     
 24      1.0515 [    1    2    4    5    9]                         
                [ 40.7 22.4 16.3 15.9  3.2]                         
 25      1.0797 [    1    2    3    4    5    6    7]               
                [ 36.0 36.5  6.1  9.1  6.0  3.5  2.0]               
 26      1.1017 [    1    2    3    4    5    6    7    8    9]     
                [ 32.3 13.3  8.5 14.0  3.8  3.7 16.7  3.0  4.7]     
 27      1.1543 [    1    2    3    4    5    6    7    8    9]     
                [ 21.8  4.6 26.2 10.4  3.6 20.4  7.0  4.1  2.0]     
 28      1.1999 [    1    2    3    4    5    7    8    9]          
                [ 50.0 18.4 10.3  4.2  5.3  4.0  2.3  5.3]          
 29      1.2218 [    1    2    3    4    5]                         
                [ 63.0 20.6  2.0  7.6  4.2]                         
 30      1.2588 [    1    2    3    4    5    6    7    8    9]     
                [ 24.2 21.1 21.0  6.2  6.7  9.7  1.7  8.1  1.3]     
 31      1.2674 [    1    2    3    4    5    6    7    8]          
                [  6.8  2.2 43.3 11.7 10.0  9.3 14.4  2.3]          
 32      1.2962 [    1    2    3    4    5    6    7    8    9]     
                [  5.1 11.2 21.3 30.6  3.8  3.2 10.7 12.6  1.5]     
 33      1.3287 [    1    2    3    4    5    6    7    8    9]     
                [ 14.7 39.3 11.7  2.8 11.7  1.1  5.5  1.5 11.7]     
 34      1.4211 [    1    2    3    4    5    6    8    9]          
                [ 28.3 17.3 16.8  6.9 17.5  4.2  1.6  7.1]          
 35      1.4561 [    1    2    3    4    5    6    7    8    9]     
                [ 11.0 10.8 34.5 11.5  2.8 11.2  5.0  1.1 12.1]     
 36      1.4609 [    1    2    3    4    5    6    8]               
                [  3.2  3.2 21.7 46.7  4.6  5.2 15.0]               
 37      1.5258 [    1    2    3    4    5    6    7    8    9]     
                [ 13.2 18.6 13.4 13.8 16.1  5.8  7.6  8.5  3.0]     
 38      1.5654 [    1    2    3    4    5    7    9]               
                [ 14.5 35.9 17.2 10.9  9.5  1.7  9.0]               
 39      1.6015 [    1    2    3    4    5    9]                    
                [  4.3 68.3  2.4  1.6  5.4 17.2]                    
 40      1.6486 [    1    2    3    4    5    6    7    8    9]     
                [ 14.6 32.7 10.9 14.5 12.5  2.3  4.5  4.3  3.7]     
 41      1.6611 [    1    2    3    4    5    7]                    
                [ 10.9  9.0 24.9 16.5 32.7  4.4]                    
 42      1.7823 [    1    2    3    4    5    6    7    8]          
                [  8.5  6.0  7.1 34.5 39.4  1.4  1.9  1.0]          
 43      1.8313 [    1    2    3    4    5    9]                    
                [  4.3 23.0 11.9 49.7  5.5  3.5]                    
 44      1.8850 [    1    2    3    4    5    6    8    9]          
                [  7.5 16.2 16.6 23.5 27.8  1.7  4.0  1.7]          
 45      1.8952 [    1    2    3    4    5    6    8]               
                [  9.7 25.7 10.1 13.5 35.9  2.0  1.5]               
 46      1.9007 [    1    2    3    4    5    6    7    8]          
                [  2.3  9.5 43.4 32.3  3.8  3.8  3.3  1.4]          
 47      2.0037 [    1    2    3    4    5    6    7]               
                [ 25.7  8.0 34.6 15.7  8.6  1.5  5.1]               
 
 ----- Localization procedure: 2x2 Rotations -----
 (Exponent = 2)
 
 Iter        Function    Gradient
    1       10.154401    7.52E-03
    2       33.359684    5.90E-03
    3       38.072582    1.88E-03
    4       38.438913    3.38E-04
    5       38.451645    6.72E-05
    6       38.452450    2.30E-05
    7       38.452581    1.06E-05
    8       38.452609    4.99E-06
    9       38.452615    2.36E-06
   10       38.452616    1.12E-06
   11       38.452617    5.32E-07
   12       38.452617    2.53E-07
   13       38.452617    1.20E-07
   14       38.452617    5.71E-08
   15       38.452617    2.71E-08
   16       38.452617    1.29E-08
   17       38.452617    6.11E-09
   18       38.452617    2.90E-09
   19       38.452617    1.38E-09
   20       38.452617    6.54E-10
   21       38.452617    3.11E-10
   22       38.452617    1.48E-10
   23       38.452617    7.01E-11
   24       38.452617    3.33E-11
   25       38.452617    1.58E-11
   26       38.452617    7.50E-12
   27       38.452617    3.56E-12
   28       38.452617    1.69E-12
   29       38.452617    8.03E-13
   30       38.452617    3.81E-13
   31       38.452617    1.81E-13
   32       38.452617    8.59E-14
   33       38.452617    4.08E-14
   34       38.452617    1.94E-14
   35       38.452617    9.20E-15
   36       38.452617    4.37E-15
   37       38.452617    2.07E-15
   38       38.452617    9.85E-16
 
 ******************************************
 Final converged values (it, func, fGrad):
   38           38.4526168710928502  9.8475E-16
 ******************************************
 
 
 ----- Percentage of localization after localization ----- 
 
 MO Localized on fragments (with %) (thrs = 0.01, first ten are shown)
  1      0.4677 [    2    5    9]                                   
                [  3.6  3.9 91.3]                                   
  2      0.5411 [    3    4    6]                                   
                [  2.4  1.0 95.1]                                   
  3      0.5432 [    3    4    8]                                   
                [  1.3  2.1 95.3]                                   
  4      0.6883 [    3    7]                                        
                [  1.7 94.6]                                        
  5      0.7259 [    3]                                             
                [ 99.8]                                             
  6      0.7466 [    6]                                             
                [ 98.3]                                             
  7      0.7471 [    2    5    9]                                   
                [  1.9  7.0 90.7]                                   
  8      0.7484 [    3    4    8]                                   
                [  1.1  1.1 97.0]                                   
  9      0.7538 [    3    4    7]                                   
                [  1.1  1.1 97.7]                                   
 10      0.7615 [    7]                                             
                [ 97.3]                                             
 11      0.8112 [    4    5    8]                                   
                [  1.2  5.8 91.5]                                   
 12      0.8203 [    6]                                             
                [ 97.6]                                             
 13      0.8462 [    5]                                             
                [ 99.2]                                             
 14      0.8650 [    1    5    9]                                   
                [  1.1  2.1 95.9]                                   
 15      0.8770 [    1    4    5]                                   
                [  1.1 97.7  1.2]                                   
 16      1.0245 [    2    5    9]                                   
                [ 33.6  4.2 61.5]                                   
 17      1.0466 [    1]                                             
                [ 99.9]                                             
 18      1.0512 [    1]                                             
                [100.0]                                             
 19      1.0573 [    3]                                             
                [ 99.5]                                             
 20      1.0641 [    3    4]                                        
                [ 49.6 49.3]                                        
 21      1.0708 [    3    6]                                        
                [ 48.4 49.5]                                        
 22      1.0790 [    1]                                             
                [ 99.5]                                             
 23      1.0811 [    1    2    5]                                   
                [  1.5 64.0 34.1]                                   
 24      1.0824 [    1    5]                                        
                [ 97.7  1.6]                                        
 25      1.0868 [    1    4    5]                                   
                [ 89.6  1.3  8.3]                                   
 26      1.1054 [    2]                                             
                [100.0]                                             
 27      1.1087 [    1    5]                                        
                [ 49.5 49.7]                                        
 28      1.1090 [    3    4    5    8]                              
                [  1.0 46.9  4.7 46.5]                              
 29      1.1093 [    2]                                             
                [100.0]                                             
 30      1.1106 [    3    5    7]                                   
                [ 51.2  1.2 45.9]                                   
 31      1.1781 [    1]                                             
                [100.0]                                             
 32      1.1811 [    3    4    5]                                   
                [ 86.8  2.6  9.0]                                   
 33      1.1830 [    2]                                             
                [ 99.6]                                             
 34      1.2002 [    1    3    4    5]                              
                [  1.0 43.8 38.0 15.6]                              
 35      1.2016 [    2]                                             
                [ 98.4]                                             
 36      1.2197 [    2]                                             
                [ 99.1]                                             
 37      1.2261 [    4    5]                                        
                [ 45.8 52.4]                                        
 38      1.2344 [    4]                                             
                [ 99.8]                                             
 39      1.2372 [    1    5]                                        
                [ 73.4 24.4]                                        
 40      1.3012 [    4    5]                                        
                [ 72.3 25.9]                                        
 41      1.3305 [    4    5]                                        
                [ 90.0  7.3]                                        
 42      1.3319 [    3]                                             
                [ 97.4]                                             
 43      1.3583 [    5]                                             
                [ 99.2]                                             
 44      1.3584 [    2    4    5]                                   
                [ 82.8  1.9 13.9]                                   
 45      1.4162 [    2    4    5]                                   
                [  2.0 91.8  5.8]                                   
 46      1.5306 [    3    5]                                        
                [ 97.7  1.4]                                        
 47      1.5542 [    2    5]                                        
                [ 41.9 57.0]                                        
 
 ----- Recanonicalized virtual energies of fragments -----
 
    Fragment          MO              Energy
           1           1         0.874117621
           1           2         0.993585722
           1           3         1.067641942
           1           4         1.096183969
           1           5         1.100556191
           1           6         1.152569977
           1           7         1.248965743
           1           8         1.336408960
           2           1         0.996911210
           2           2         1.016184232
           2           3         1.071213570
           2           4         1.191595939
           2           5         1.256451549
           2           6         1.338102916
           2           7         1.388033176
           3           1        -0.037728031
           3           2         0.463152699
           3           3         0.648413306
           3           4         0.820162202
           3           5         0.996129410
           3           6         1.144746754
           3           7         1.196715517
           3           8         1.255428481
           3           9         1.531505390
           3          10         1.647388828
           4           1         0.327496964
           4           2         0.837296667
           4           3         0.859373671
           4           4         1.183530859
           4           5         1.439406864
           4           6         1.456006341
           4           7         1.507595603
           5           1        -0.015058171
           5           2         0.221326216
           5           3         0.413611844
           5           4         0.848637036
           5           5         0.924874161
           5           6         1.595042766
           5           7         1.686396307
           6           1         0.111016460
           6           2         0.580207037
           6           3         0.746620683
           6           4         0.821004097
           6           5         1.199888924
           7           1         0.137034927
           7           2         0.719284652
           7           3         0.753771426
           7           4         0.877600586
           8           1         0.122757262
           8           2         0.690468535
           8           3         0.748356460
           8           4         0.826771053
           9           1         0.030454034
           9           2         0.507367963
           9           3         0.747055527
           9           4         0.874829686
           9           5         1.076188530
 
 @@@@@@@@@@@@@@@@@@@@@@@@@@@@@@@@@@@@@@@@@@@@@@@@@@
 @                                                @
 @       Reduction of Orbital Space Extent        @
 @                                                @
 @                      END                       @
 @                                                @
 @@@@@@@@@@@@@@@@@@@@@@@@@@@@@@@@@@@@@@@@@@@@@@@@@@
PLAMS working folder: /Users/visscher/sources/rose/build_withams/test/ams_atomfrags/plams_workdir.008
Starting ADF calculation for Molecule in the new IBO basis...
[16.05|08:00:28] JOB Molecule_B1_new STARTED
[16.05|08:00:28] JOB Molecule_B1_new RUNNING
[16.05|08:00:36] JOB Molecule_B1_new FINISHED
[16.05|08:00:36] JOB Molecule_B1_new SUCCESSFUL
ADF calculation in the new basis ended successfully
[16.05|08:00:36] PLAMS run finished. Goodbye
